EESchema Schematic File Version 4
EELAYER 30 0
EELAYER END
$Descr A4 11693 8268
encoding utf-8
Sheet 1 1
Title ""
Date ""
Rev ""
Comp ""
Comment1 ""
Comment2 ""
Comment3 ""
Comment4 ""
$EndDescr
$Comp
L Driver_LED:PCA9635 U2
U 1 1 600486C7
P 5050 3350
F 0 "U2" H 5150 4400 50  0000 C CNN
F 1 "PCA9635" H 5250 4300 50  0000 C CNN
F 2 "Package_SO:TSSOP-28_4.4x9.7mm_P0.65mm" H 5050 3350 50  0001 C CNN
F 3 "https://www.nxp.com/docs/en/data-sheet/PCA9635.pdf" H 5050 3350 50  0001 C CNN
	1    5050 3350
	1    0    0    -1  
$EndComp
$Comp
L locolib:XL4005_DC-DC PS1
U 1 1 6004A569
P 5000 7100
F 0 "PS1" H 5000 7465 50  0000 C CNN
F 1 "XL4005_DC-DC" H 5000 7374 50  0000 C CNN
F 2 "XL4005:XL4005_DC-DC" H 5000 7100 50  0001 C CNN
F 3 "" H 5000 7100 50  0001 C CNN
	1    5000 7100
	1    0    0    -1  
$EndComp
$Comp
L MCU_Module:WeMos_D1_mini U1
U 1 1 6004B017
P 1950 2850
F 0 "U1" H 2100 2000 50  0000 C CNN
F 1 "WeMos_D1_mini" H 2300 2100 50  0000 C CNN
F 2 "Module:WEMOS_D1_mini_light" H 1950 1700 50  0001 C CNN
F 3 "https://wiki.wemos.cc/products:d1:d1_mini#documentation" H 100 1700 50  0001 C CNN
	1    1950 2850
	1    0    0    -1  
$EndComp
Wire Wire Line
	4300 7000 4600 7000
Wire Wire Line
	5400 7000 5650 7000
Wire Wire Line
	5400 7200 5650 7200
Wire Wire Line
	2050 2050 2050 2000
Wire Wire Line
	5050 2250 5050 2350
Wire Wire Line
	1950 3650 1950 3850
Wire Wire Line
	5050 4250 5050 4500
Text Label 2050 2000 0    50   ~ 0
3V3
Text Label 1950 3850 0    50   ~ 0
GND
Text Label 5050 4500 0    50   ~ 0
GND
Text Label 5050 2250 0    50   ~ 0
3V3
Wire Wire Line
	2350 2950 3700 2950
Wire Wire Line
	2350 2650 3400 2650
Wire Wire Line
	5550 2550 5850 2550
Wire Wire Line
	5850 2550 5850 2300
Wire Wire Line
	6050 2300 6050 2650
Wire Wire Line
	6050 2650 5550 2650
Wire Wire Line
	5550 2750 6250 2750
Wire Wire Line
	6250 2750 6250 2300
Wire Wire Line
	6450 2300 6450 2850
Wire Wire Line
	6450 2850 5550 2850
Wire Wire Line
	5550 2950 7150 2950
Wire Wire Line
	7150 2950 7150 2300
Wire Wire Line
	5550 3050 7350 3050
Wire Wire Line
	7350 3050 7350 2300
Wire Wire Line
	7550 2300 7550 3150
Wire Wire Line
	7550 3150 5550 3150
Wire Wire Line
	5550 3250 7750 3250
Wire Wire Line
	7750 3250 7750 2300
Wire Wire Line
	5550 3350 7750 3350
Wire Wire Line
	7750 3350 7750 4300
Wire Wire Line
	5550 3450 7550 3450
Wire Wire Line
	7550 3450 7550 4300
Wire Wire Line
	5550 3550 7350 3550
Wire Wire Line
	7350 3550 7350 4300
Wire Wire Line
	5550 3650 7150 3650
Wire Wire Line
	7150 3650 7150 4300
Wire Wire Line
	6450 4300 6450 3750
Wire Wire Line
	6450 3750 5550 3750
Wire Wire Line
	5550 3850 6250 3850
Wire Wire Line
	6250 3850 6250 4300
Wire Wire Line
	5550 3950 6050 3950
Wire Wire Line
	6050 3950 6050 4300
Wire Wire Line
	5550 4050 5850 4050
Wire Wire Line
	5850 4050 5850 4300
Text Label 6050 1500 0    50   ~ 0
S1
Text Label 6250 1500 0    50   ~ 0
S2
Text Label 6450 1500 0    50   ~ 0
S3
Text Label 7150 1500 0    50   ~ 0
S4
Text Label 7350 1500 0    50   ~ 0
S5
Text Label 7550 1500 0    50   ~ 0
S6
Text Label 7750 1500 0    50   ~ 0
S7
Text Label 7750 5100 0    50   ~ 0
S8
Text Label 7550 5100 0    50   ~ 0
S9
Text Label 7350 5100 0    50   ~ 0
S10
Text Label 7150 5100 0    50   ~ 0
S11
Text Label 6450 5100 0    50   ~ 0
S12
Text Label 6250 5100 0    50   ~ 0
S13
Text Label 6050 5100 0    50   ~ 0
S14
Text Label 2900 1500 0    50   ~ 0
3V3
Wire Wire Line
	2350 2550 3100 2550
Connection ~ 3100 2550
Wire Wire Line
	3100 2550 4550 2550
Connection ~ 3400 2650
Wire Wire Line
	3400 2650 4550 2650
Wire Wire Line
	3700 2750 4550 2750
Wire Wire Line
	1350 7000 1200 7000
Text Label 4300 7200 0    50   ~ 0
GND
Wire Wire Line
	4600 7200 4300 7200
Text Label 1200 7300 0    50   ~ 0
GND
Text Label 4300 7000 0    50   ~ 0
Vin
Text Label 1850 2000 0    50   ~ 0
Vcc
Wire Wire Line
	1850 2050 1850 2000
Text Label 2350 2550 0    50   ~ 0
SCL
Text Label 2350 2650 0    50   ~ 0
SDA
Text Label 2350 2950 0    50   ~ 0
OE
Text Label 5550 2550 0    50   ~ 0
L0
Text Label 5550 2650 0    50   ~ 0
L1
Text Label 5550 2750 0    50   ~ 0
L2
Text Label 5550 2850 0    50   ~ 0
L3
Text Label 5550 2950 0    50   ~ 0
L4
Text Label 5550 3050 0    50   ~ 0
L5
Text Label 5550 3150 0    50   ~ 0
L6
Text Label 5550 3250 0    50   ~ 0
L7
Text Label 5550 3350 0    50   ~ 0
L8
Text Label 5550 3450 0    50   ~ 0
L9
Text Label 5550 3550 0    50   ~ 0
L10
Text Label 5550 3650 0    50   ~ 0
L11
Text Label 5550 3750 0    50   ~ 0
L12
Text Label 5550 3850 0    50   ~ 0
L13
Text Label 5550 3950 0    50   ~ 0
L14
Text Label 5550 4050 0    50   ~ 0
L15
Text Label 5850 5100 0    50   ~ 0
S15
Text Label 5850 1500 0    50   ~ 0
S0
$Comp
L Device:LED D1
U 1 1 600EB23A
P 3100 5150
F 0 "D1" H 3093 4895 50  0000 C CNN
F 1 "LED" H 3093 4986 50  0000 C CNN
F 2 "LED_SMD:LED_0603_1608Metric" H 3100 5150 50  0001 C CNN
F 3 "~" H 3100 5150 50  0001 C CNN
	1    3100 5150
	-1   0    0    1   
$EndComp
$Comp
L Device:LED D2
U 1 1 600EEA00
P 3100 5550
F 0 "D2" H 3093 5295 50  0000 C CNN
F 1 "LED" H 3093 5386 50  0000 C CNN
F 2 "LED_SMD:LED_0603_1608Metric" H 3100 5550 50  0001 C CNN
F 3 "~" H 3100 5550 50  0001 C CNN
	1    3100 5550
	-1   0    0    1   
$EndComp
$Comp
L Device:R R4
U 1 1 600EFF2E
P 3550 5550
F 0 "R4" V 3343 5550 50  0000 C CNN
F 1 "470R" V 3434 5550 50  0000 C CNN
F 2 "Resistor_SMD:R_0603_1608Metric" V 3480 5550 50  0001 C CNN
F 3 "~" H 3550 5550 50  0001 C CNN
	1    3550 5550
	0    1    1    0   
$EndComp
$Comp
L Device:R R3
U 1 1 600F3EE0
P 3550 5150
F 0 "R3" V 3343 5150 50  0000 C CNN
F 1 "470R" V 3434 5150 50  0000 C CNN
F 2 "Resistor_SMD:R_0603_1608Metric" V 3480 5150 50  0001 C CNN
F 3 "~" H 3550 5150 50  0001 C CNN
	1    3550 5150
	0    1    1    0   
$EndComp
Text Label 2750 5550 0    50   ~ 0
Vcc
Text Label 3800 5550 0    50   ~ 0
GND
Wire Wire Line
	2750 5550 2950 5550
Wire Wire Line
	3700 5150 3700 5550
Wire Wire Line
	3700 5550 3800 5550
Connection ~ 3700 5550
Wire Wire Line
	3400 5550 3250 5550
Wire Wire Line
	3400 5150 3250 5150
Wire Wire Line
	2750 5150 2950 5150
Text Label 2350 2850 0    50   ~ 0
LED
Text Label 2750 5150 0    50   ~ 0
LED
Wire Wire Line
	2500 2850 2350 2850
Text Label 3950 1500 0    50   ~ 0
GND
$Comp
L Device:R R1
U 1 1 60104340
P 3100 1850
F 0 "R1" H 3170 1896 50  0000 L CNN
F 1 "10K" H 3170 1805 50  0000 L CNN
F 2 "Resistor_SMD:R_0603_1608Metric" V 3030 1850 50  0001 C CNN
F 3 "~" H 3100 1850 50  0001 C CNN
	1    3100 1850
	1    0    0    -1  
$EndComp
$Comp
L Device:R R2
U 1 1 60104B2C
P 3400 1850
F 0 "R2" H 3470 1896 50  0000 L CNN
F 1 "10K" H 3470 1805 50  0000 L CNN
F 2 "Resistor_SMD:R_0603_1608Metric" V 3330 1850 50  0001 C CNN
F 3 "~" H 3400 1850 50  0001 C CNN
	1    3400 1850
	1    0    0    -1  
$EndComp
$Comp
L Device:R R5
U 1 1 60104F59
P 3700 1850
F 0 "R5" H 3770 1896 50  0000 L CNN
F 1 "10K" H 3770 1805 50  0000 L CNN
F 2 "Resistor_SMD:R_0603_1608Metric" V 3630 1850 50  0001 C CNN
F 3 "~" H 3700 1850 50  0001 C CNN
	1    3700 1850
	1    0    0    -1  
$EndComp
Wire Wire Line
	3400 1500 3400 1700
Wire Wire Line
	2900 1500 3100 1500
Wire Wire Line
	3100 1500 3100 1700
Connection ~ 3100 1500
Wire Wire Line
	3100 1500 3400 1500
Wire Wire Line
	3950 1500 3700 1500
Wire Wire Line
	3700 1500 3700 1700
Wire Wire Line
	3700 2000 3700 2750
Wire Wire Line
	3400 2000 3400 2650
Wire Wire Line
	3100 2000 3100 2550
$Comp
L locolib:SI2337DDS Q1
U 1 1 6012FDD1
P 3250 7150
F 0 "Q1" H 3504 7196 50  0000 L CNN
F 1 "SI2337DDS" H 3504 7105 50  0000 L CNN
F 2 "Package_TO_SOT_SMD:SOT-23" H 4050 7050 50  0001 C CNN
F 3 "" H 3250 7150 50  0001 C CNN
	1    3250 7150
	1    0    0    -1  
$EndComp
Text Label 1200 7000 0    50   ~ 0
Vbat
Wire Wire Line
	3100 6950 3400 6950
Text Label 3100 6950 0    50   ~ 0
Vbat
Wire Wire Line
	3650 7350 3400 7350
Text Label 3650 7350 0    50   ~ 0
Vin
Text Label 2800 7150 0    50   ~ 0
GND
Wire Wire Line
	3100 7150 2800 7150
$Comp
L locolib:CAY16-221J4AS RN1
U 1 1 6015011C
P 6150 1900
F 0 "RN1" V 6196 2428 50  0000 L CNN
F 1 "CAY16-221J4AS" V 6105 2428 50  0000 L CNN
F 2 "SnapEDA:RESCAF80P320X160X60-8N" H 6150 1900 50  0001 L BNN
F 3 "" H 6150 1900 50  0001 L BNN
F 4 "Bourns" H 6150 1900 50  0001 L BNN "MANUFACTURER"
F 5 "IPC-7351B" H 6150 1900 50  0001 L BNN "STANDARD"
	1    6150 1900
	0    1    -1   0   
$EndComp
$Comp
L locolib:CAY16-221J4AS RN4
U 1 1 60152A01
P 7450 4700
F 0 "RN4" V 7496 5228 50  0000 L CNN
F 1 "CAY16-221J4AS" V 7405 5228 50  0000 L CNN
F 2 "SnapEDA:RESCAF80P320X160X60-8N" H 7450 4700 50  0001 L BNN
F 3 "" H 7450 4700 50  0001 L BNN
F 4 "Bourns" H 7450 4700 50  0001 L BNN "MANUFACTURER"
F 5 "IPC-7351B" H 7450 4700 50  0001 L BNN "STANDARD"
	1    7450 4700
	0    1    -1   0   
$EndComp
$Comp
L locolib:CAY16-221J4AS RN2
U 1 1 60154630
P 6150 4700
F 0 "RN2" V 6196 5228 50  0000 L CNN
F 1 "CAY16-221J4AS" V 6105 5228 50  0000 L CNN
F 2 "SnapEDA:RESCAF80P320X160X60-8N" H 6150 4700 50  0001 L BNN
F 3 "" H 6150 4700 50  0001 L BNN
F 4 "Bourns" H 6150 4700 50  0001 L BNN "MANUFACTURER"
F 5 "IPC-7351B" H 6150 4700 50  0001 L BNN "STANDARD"
	1    6150 4700
	0    1    -1   0   
$EndComp
$Comp
L Device:CP C1
U 1 1 6015585D
P 6200 7100
F 0 "C1" H 6318 7146 50  0000 L CNN
F 1 "1000uF" H 6318 7055 50  0000 L CNN
F 2 "Capacitor_SMD:CP_Elec_10x10" H 6238 6950 50  0001 C CNN
F 3 "~" H 6200 7100 50  0001 C CNN
	1    6200 7100
	1    0    0    -1  
$EndComp
Text Label 6200 6900 0    50   ~ 0
Vcc
Text Label 6200 7300 0    50   ~ 0
GND
Wire Wire Line
	6200 6950 6200 6900
Wire Wire Line
	5650 6900 5650 7000
Wire Wire Line
	5650 6900 6200 6900
Wire Wire Line
	6200 7250 6200 7300
Wire Wire Line
	6200 7300 5650 7300
Wire Wire Line
	5650 7300 5650 7200
$Comp
L Connector_Generic:Conn_01x03 J1
U 1 1 6017D677
P 9150 1700
F 0 "J1" V 9022 1880 50  0000 L CNN
F 1 "Conn_01x03" V 9113 1880 50  0000 L CNN
F 2 "locoquad_v1:Molex_PicoBlade_53047-0310_1x03_P1.25mm_Vertical" H 9150 1700 50  0001 C CNN
F 3 "~" H 9150 1700 50  0001 C CNN
	1    9150 1700
	0    1    1    0   
$EndComp
$Comp
L Connector_Generic:Conn_01x03 J2
U 1 1 6017FED7
P 9150 2200
F 0 "J2" V 9022 2380 50  0000 L CNN
F 1 "Conn_01x03" V 9113 2380 50  0000 L CNN
F 2 "locoquad_v1:Molex_PicoBlade_53047-0310_1x03_P1.25mm_Vertical" H 9150 2200 50  0001 C CNN
F 3 "~" H 9150 2200 50  0001 C CNN
	1    9150 2200
	0    1    1    0   
$EndComp
$Comp
L Connector_Generic:Conn_01x03 J3
U 1 1 60182FFD
P 9150 2650
F 0 "J3" V 9022 2830 50  0000 L CNN
F 1 "Conn_01x03" V 9113 2830 50  0000 L CNN
F 2 "locoquad_v1:Molex_PicoBlade_53047-0310_1x03_P1.25mm_Vertical" H 9150 2650 50  0001 C CNN
F 3 "~" H 9150 2650 50  0001 C CNN
	1    9150 2650
	0    1    1    0   
$EndComp
$Comp
L Connector_Generic:Conn_01x03 J4
U 1 1 60183003
P 9150 3150
F 0 "J4" V 9022 3330 50  0000 L CNN
F 1 "Conn_01x03" V 9113 3330 50  0000 L CNN
F 2 "locoquad_v1:Molex_PicoBlade_53047-0310_1x03_P1.25mm_Vertical" H 9150 3150 50  0001 C CNN
F 3 "~" H 9150 3150 50  0001 C CNN
	1    9150 3150
	0    1    1    0   
$EndComp
$Comp
L Connector_Generic:Conn_01x03 J5
U 1 1 60186708
P 9150 3650
F 0 "J5" V 9022 3830 50  0000 L CNN
F 1 "Conn_01x03" V 9113 3830 50  0000 L CNN
F 2 "locoquad_v1:Molex_PicoBlade_53047-0310_1x03_P1.25mm_Vertical" H 9150 3650 50  0001 C CNN
F 3 "~" H 9150 3650 50  0001 C CNN
	1    9150 3650
	0    1    1    0   
$EndComp
$Comp
L Connector_Generic:Conn_01x03 J6
U 1 1 6018670E
P 9150 4150
F 0 "J6" V 9022 4330 50  0000 L CNN
F 1 "Conn_01x03" V 9113 4330 50  0000 L CNN
F 2 "locoquad_v1:Molex_PicoBlade_53047-0310_1x03_P1.25mm_Vertical" H 9150 4150 50  0001 C CNN
F 3 "~" H 9150 4150 50  0001 C CNN
	1    9150 4150
	0    1    1    0   
$EndComp
$Comp
L Connector_Generic:Conn_01x03 J7
U 1 1 60186714
P 9150 4600
F 0 "J7" V 9022 4780 50  0000 L CNN
F 1 "Conn_01x03" V 9113 4780 50  0000 L CNN
F 2 "locoquad_v1:Molex_PicoBlade_53047-0310_1x03_P1.25mm_Vertical" H 9150 4600 50  0001 C CNN
F 3 "~" H 9150 4600 50  0001 C CNN
	1    9150 4600
	0    1    1    0   
$EndComp
$Comp
L Connector_Generic:Conn_01x03 J8
U 1 1 6018671A
P 9150 5100
F 0 "J8" V 9022 5280 50  0000 L CNN
F 1 "Conn_01x03" V 9113 5280 50  0000 L CNN
F 2 "locoquad_v1:Molex_PicoBlade_53047-0310_1x03_P1.25mm_Vertical" H 9150 5100 50  0001 C CNN
F 3 "~" H 9150 5100 50  0001 C CNN
	1    9150 5100
	0    1    1    0   
$EndComp
$Comp
L Connector_Generic:Conn_01x03 J9
U 1 1 6018EE82
P 10200 1700
F 0 "J9" V 10072 1880 50  0000 L CNN
F 1 "Conn_01x03" V 10163 1880 50  0000 L CNN
F 2 "locoquad_v1:Molex_PicoBlade_53047-0310_1x03_P1.25mm_Vertical" H 10200 1700 50  0001 C CNN
F 3 "~" H 10200 1700 50  0001 C CNN
	1    10200 1700
	0    1    1    0   
$EndComp
$Comp
L Connector_Generic:Conn_01x03 J10
U 1 1 6018EE88
P 10200 2200
F 0 "J10" V 10072 2380 50  0000 L CNN
F 1 "Conn_01x03" V 10163 2380 50  0000 L CNN
F 2 "locoquad_v1:Molex_PicoBlade_53047-0310_1x03_P1.25mm_Vertical" H 10200 2200 50  0001 C CNN
F 3 "~" H 10200 2200 50  0001 C CNN
	1    10200 2200
	0    1    1    0   
$EndComp
$Comp
L Connector_Generic:Conn_01x03 J11
U 1 1 6018EE8E
P 10200 2650
F 0 "J11" V 10072 2830 50  0000 L CNN
F 1 "Conn_01x03" V 10163 2830 50  0000 L CNN
F 2 "locoquad_v1:Molex_PicoBlade_53047-0310_1x03_P1.25mm_Vertical" H 10200 2650 50  0001 C CNN
F 3 "~" H 10200 2650 50  0001 C CNN
	1    10200 2650
	0    1    1    0   
$EndComp
$Comp
L Connector_Generic:Conn_01x03 J12
U 1 1 6018EE94
P 10200 3150
F 0 "J12" V 10072 3330 50  0000 L CNN
F 1 "Conn_01x03" V 10163 3330 50  0000 L CNN
F 2 "locoquad_v1:Molex_PicoBlade_53047-0310_1x03_P1.25mm_Vertical" H 10200 3150 50  0001 C CNN
F 3 "~" H 10200 3150 50  0001 C CNN
	1    10200 3150
	0    1    1    0   
$EndComp
$Comp
L Connector_Generic:Conn_01x03 J13
U 1 1 6018EE9A
P 10200 3650
F 0 "J13" V 10072 3830 50  0000 L CNN
F 1 "Conn_01x03" V 10163 3830 50  0000 L CNN
F 2 "locoquad_v1:Molex_PicoBlade_53047-0310_1x03_P1.25mm_Vertical" H 10200 3650 50  0001 C CNN
F 3 "~" H 10200 3650 50  0001 C CNN
	1    10200 3650
	0    1    1    0   
$EndComp
$Comp
L Connector_Generic:Conn_01x03 J14
U 1 1 6018EEA0
P 10200 4150
F 0 "J14" V 10072 4330 50  0000 L CNN
F 1 "Conn_01x03" V 10163 4330 50  0000 L CNN
F 2 "locoquad_v1:Molex_PicoBlade_53047-0310_1x03_P1.25mm_Vertical" H 10200 4150 50  0001 C CNN
F 3 "~" H 10200 4150 50  0001 C CNN
	1    10200 4150
	0    1    1    0   
$EndComp
$Comp
L Connector_Generic:Conn_01x03 J15
U 1 1 6018EEA6
P 10200 4600
F 0 "J15" V 10072 4780 50  0000 L CNN
F 1 "Conn_01x03" V 10163 4780 50  0000 L CNN
F 2 "locoquad_v1:Molex_PicoBlade_53047-0310_1x03_P1.25mm_Vertical" H 10200 4600 50  0001 C CNN
F 3 "~" H 10200 4600 50  0001 C CNN
	1    10200 4600
	0    1    1    0   
$EndComp
$Comp
L Connector_Generic:Conn_01x03 J16
U 1 1 6018EEAC
P 10200 5100
F 0 "J16" V 10072 5280 50  0000 L CNN
F 1 "Conn_01x03" V 10163 5280 50  0000 L CNN
F 2 "locoquad_v1:Molex_PicoBlade_53047-0310_1x03_P1.25mm_Vertical" H 10200 5100 50  0001 C CNN
F 3 "~" H 10200 5100 50  0001 C CNN
	1    10200 5100
	0    1    1    0   
$EndComp
Text Label 9450 1500 0    50   ~ 0
GND
Text Label 10500 1500 0    50   ~ 0
GND
Text Label 9150 1350 0    50   ~ 0
Vcc
Text Label 10200 1350 0    50   ~ 0
Vcc
Wire Wire Line
	9150 1350 9150 1500
Connection ~ 9150 1500
Wire Wire Line
	9150 1500 9150 2000
Connection ~ 9150 2000
Wire Wire Line
	9150 2000 9150 2450
Connection ~ 9150 2450
Wire Wire Line
	9150 2450 9150 2950
Connection ~ 9150 2950
Wire Wire Line
	9150 2950 9150 3450
Connection ~ 9150 3450
Wire Wire Line
	9150 3450 9150 3950
Connection ~ 9150 3950
Wire Wire Line
	9150 3950 9150 4400
Connection ~ 9150 4400
Wire Wire Line
	9150 4400 9150 4900
Wire Wire Line
	10200 1350 10200 1500
Connection ~ 10200 1500
Wire Wire Line
	10200 1500 10200 2000
Connection ~ 10200 2000
Wire Wire Line
	10200 2000 10200 2450
Connection ~ 10200 2450
Wire Wire Line
	10200 2450 10200 2950
Connection ~ 10200 2950
Wire Wire Line
	10200 2950 10200 3450
Connection ~ 10200 3450
Wire Wire Line
	10200 3450 10200 3950
Connection ~ 10200 3950
Wire Wire Line
	10200 3950 10200 4400
Connection ~ 10200 4400
Wire Wire Line
	10200 4400 10200 4900
Wire Wire Line
	10500 1500 10300 1500
Wire Wire Line
	10300 1500 10300 2000
Connection ~ 10300 1500
Connection ~ 10300 2000
Wire Wire Line
	10300 2000 10300 2450
Connection ~ 10300 2450
Wire Wire Line
	10300 2450 10300 2950
Connection ~ 10300 2950
Wire Wire Line
	10300 2950 10300 3450
Connection ~ 10300 3450
Wire Wire Line
	10300 3450 10300 3950
Connection ~ 10300 3950
Wire Wire Line
	10300 3950 10300 4400
Connection ~ 10300 4400
Wire Wire Line
	10300 4400 10300 4900
Wire Wire Line
	9450 1500 9250 1500
Wire Wire Line
	9250 1500 9250 2000
Connection ~ 9250 1500
Connection ~ 9250 2000
Wire Wire Line
	9250 2000 9250 2450
Connection ~ 9250 2450
Wire Wire Line
	9250 2450 9250 2950
Connection ~ 9250 2950
Wire Wire Line
	9250 2950 9250 3450
Connection ~ 9250 3450
Wire Wire Line
	9250 3450 9250 3950
Connection ~ 9250 3950
Wire Wire Line
	9250 3950 9250 4400
Connection ~ 9250 4400
Wire Wire Line
	9250 4400 9250 4900
Text Label 9050 2000 2    50   ~ 0
S1
Text Label 9050 2450 2    50   ~ 0
S2
Text Label 9050 2950 2    50   ~ 0
S3
Text Label 9050 3450 2    50   ~ 0
S4
Text Label 9050 3950 2    50   ~ 0
S5
Text Label 9050 4400 2    50   ~ 0
S6
Text Label 9050 4900 2    50   ~ 0
S7
Text Label 9050 1500 2    50   ~ 0
S0
Text Label 10100 1500 2    50   ~ 0
S8
Text Label 10100 2000 2    50   ~ 0
S9
Text Label 10100 2450 2    50   ~ 0
S10
Text Label 10100 2950 2    50   ~ 0
S11
Text Label 10100 3450 2    50   ~ 0
S12
Text Label 10100 3950 2    50   ~ 0
S13
Text Label 10100 4400 2    50   ~ 0
S14
Text Label 10100 4900 2    50   ~ 0
S15
$Comp
L Connector_Generic:Conn_01x03 J17
U 1 1 6005211C
P 1650 6150
F 0 "J17" H 1730 6192 50  0000 L CNN
F 1 "Conn_01x02" H 1730 6101 50  0000 L CNN
F 2 "Connector_JST:JST_PH_B3B-PH-K_1x03_P2.00mm_Vertical" H 1650 6150 50  0001 C CNN
F 3 "~" H 1650 6150 50  0001 C CNN
	1    1650 6150
	1    0    0    -1  
$EndComp
Text Label 1150 6250 0    50   ~ 0
GND
Wire Wire Line
	1450 6250 1150 6250
Wire Wire Line
	1450 6050 1150 6050
Text Label 1150 6050 0    50   ~ 0
Vbat
$Comp
L Connector_Generic:Conn_01x02 J18
U 1 1 60066F8D
P 1650 5650
F 0 "J18" H 1730 5642 50  0000 L CNN
F 1 "Conn_01x02" H 1730 5551 50  0000 L CNN
F 2 "Connector_AMASS:AMASS_XT30PW-M_1x02_P2.50mm_Horizontal" H 1650 5650 50  0001 C CNN
F 3 "~" H 1650 5650 50  0001 C CNN
	1    1650 5650
	1    0    0    -1  
$EndComp
Text Label 1150 5750 0    50   ~ 0
Vbat
Wire Wire Line
	1450 5750 1150 5750
Wire Wire Line
	1450 5650 1150 5650
Text Label 1150 5650 0    50   ~ 0
GND
$Comp
L locolib:TP5100 U3
U 1 1 6005FA10
P 3350 6100
F 0 "U3" H 3350 6465 50  0000 C CNN
F 1 "TP5100" H 3350 6374 50  0000 C CNN
F 2 "locoquad_v1:TP5100" H 3350 6100 50  0001 C CNN
F 3 "" H 3350 6100 50  0001 C CNN
	1    3350 6100
	1    0    0    -1  
$EndComp
Text Label 3900 6200 0    50   ~ 0
GND
Wire Wire Line
	3900 6200 3750 6200
Wire Wire Line
	3900 6000 3750 6000
Text Label 3900 6000 0    50   ~ 0
Vbat
Text Label 2650 6000 0    50   ~ 0
Vcharge
Text Label 2650 6200 0    50   ~ 0
GND
Wire Wire Line
	2650 6200 2950 6200
Wire Wire Line
	2950 6000 2650 6000
$Comp
L Connector_Generic:Conn_01x04 J19
U 1 1 6007F974
P 1650 5250
F 0 "J19" H 1730 5242 50  0000 L CNN
F 1 "Conn_01x04" H 1730 5151 50  0000 L CNN
F 2 "Connector_PinHeader_2.54mm:PinHeader_1x04_P2.54mm_Vertical" H 1650 5250 50  0001 C CNN
F 3 "~" H 1650 5250 50  0001 C CNN
	1    1650 5250
	1    0    0    -1  
$EndComp
Text Label 1150 5250 0    50   ~ 0
Vcharge
Text Label 1150 5350 0    50   ~ 0
GND
Wire Wire Line
	1150 5350 1450 5350
Wire Wire Line
	1450 5250 1150 5250
Wire Wire Line
	1450 5150 1450 5250
Connection ~ 1450 5250
Wire Wire Line
	1450 5350 1450 5450
Connection ~ 1450 5350
$Comp
L locolib:MT3608 U4
U 1 1 600A2368
P 4950 6050
F 0 "U4" H 4950 6415 50  0000 C CNN
F 1 "MT3608" H 4950 6324 50  0000 C CNN
F 2 "locoquad_v1:MT3608" H 4950 6050 50  0001 C CNN
F 3 "" H 4950 6050 50  0001 C CNN
	1    4950 6050
	1    0    0    -1  
$EndComp
Text Label 5500 5950 0    50   ~ 0
Vcharge
Text Label 5500 6150 0    50   ~ 0
GND
Wire Wire Line
	5350 5950 5500 5950
Wire Wire Line
	5350 6150 5500 6150
$Comp
L locolib:CAY16-221J4AS RN3
U 1 1 60151E3A
P 7450 1900
F 0 "RN3" V 7496 2428 50  0000 L CNN
F 1 "CAY16-221J4AS" V 7405 2428 50  0000 L CNN
F 2 "SnapEDA:RESCAF80P320X160X60-8N" H 7450 1900 50  0001 L BNN
F 3 "" H 7450 1900 50  0001 L BNN
F 4 "Bourns" H 7450 1900 50  0001 L BNN "MANUFACTURER"
F 5 "IPC-7351B" H 7450 1900 50  0001 L BNN "STANDARD"
	1    7450 1900
	0    1    -1   0   
$EndComp
Text Label 3600 3650 0    50   ~ 0
GND
Text Label 3500 3550 0    50   ~ 0
3V3
Text Label 3200 3550 0    50   ~ 0
SCL
Text Label 3050 3650 0    50   ~ 0
SDA
Wire Wire Line
	3050 3650 3200 3650
Wire Wire Line
	3200 3550 3300 3550
Wire Wire Line
	3500 3550 3400 3550
Wire Wire Line
	3600 3650 3500 3650
Wire Wire Line
	3200 3650 3200 3750
Wire Wire Line
	3300 3550 3300 3750
Wire Wire Line
	3400 3550 3400 3750
Wire Wire Line
	3500 3650 3500 3750
$Comp
L Connector_Generic:Conn_01x04 J20
U 1 1 6016D2DE
P 3400 3950
F 0 "J20" V 3272 4130 50  0000 L CNN
F 1 "Conn_01x04" V 3363 4130 50  0000 L CNN
F 2 "Connector_Molex:Molex_PicoBlade_53047-0410_1x04_P1.25mm_Vertical" H 3400 3950 50  0001 C CNN
F 3 "~" H 3400 3950 50  0001 C CNN
	1    3400 3950
	0    1    1    0   
$EndComp
$Comp
L Connector_Generic:Conn_01x04 J21
U 1 1 6016B1AC
P 3400 4650
F 0 "J21" V 3272 4830 50  0000 L CNN
F 1 "Conn_01x04" V 3363 4830 50  0000 L CNN
F 2 "Connector_Molex:Molex_PicoBlade_53047-0410_1x04_P1.25mm_Vertical" H 3400 4650 50  0001 C CNN
F 3 "~" H 3400 4650 50  0001 C CNN
	1    3400 4650
	0    1    1    0   
$EndComp
Wire Wire Line
	2500 3250 2350 3250
Wire Wire Line
	2500 3150 2350 3150
Text Label 2350 3150 0    50   ~ 0
Trig
Text Label 2350 3250 0    50   ~ 0
Echo
Text Label 3200 4200 0    50   ~ 0
Trig
Text Label 3500 4200 0    50   ~ 0
Echo
Text Label 3600 4300 0    50   ~ 0
GND
Text Label 3100 4300 0    50   ~ 0
3V3
Wire Wire Line
	3100 4300 3200 4300
Wire Wire Line
	3200 4300 3200 4450
Wire Wire Line
	3200 4200 3300 4200
Wire Wire Line
	3300 4200 3300 4450
Wire Wire Line
	3500 4200 3400 4200
Wire Wire Line
	3400 4200 3400 4450
Wire Wire Line
	3500 4450 3500 4300
Wire Wire Line
	3500 4300 3600 4300
$Comp
L locolib:BK-18650-PC4 BT1
U 1 1 600AD8DB
P 1650 7100
F 0 "BT1" H 1650 7467 50  0000 C CNN
F 1 "BK-18650-PC4" H 1650 7376 50  0000 C CNN
F 2 "SnapEDA:BAT_BK-18650-PC4" H 1650 7100 50  0001 L BNN
F 3 "" H 1650 7100 50  0001 L BNN
F 4 "Manufacturer Recommendations" H 1650 7100 50  0001 L BNN "STANDARD"
F 5 "21.54 mm" H 1650 7100 50  0001 L BNN "MAXIMUM_PACKAGE_HEIGHT"
F 6 "MPD" H 1650 7100 50  0001 L BNN "MANUFACTURER"
F 7 "K" H 1650 7100 50  0001 L BNN "PARTREV"
	1    1650 7100
	1    0    0    -1  
$EndComp
Wire Wire Line
	1200 7300 1350 7300
Wire Wire Line
	1950 7000 1950 7300
Wire Wire Line
	3700 2950 3700 2750
Connection ~ 3700 2750
$EndSCHEMATC
